…
Compare calculated gross change (gain - loss) from T<sub>1</sub> to
T<sub>2</sub> to the observed total at T<sub>2</sub> of root length for
each window.

### Sanity Check

    ## # A tibble: 7,485 x 8
    ##     Tube Location Month treatment TotLength_mm gross_gain gross_loss calc_net
    ##    <dbl>    <dbl> <dbl> <chr>            <dbl>      <dbl>      <dbl>    <dbl>
    ##  1     1        1     4 control           23.2      NA         NA        NA  
    ##  2     1        1     5 control           11.3      NA         NA        NA  
    ##  3     1        1     6 control           62.3      37.7        1.78     47.2
    ##  4     1        1     7 control           76.2      37.9       24.0      76.2
    ##  5     1        1     8 control           67.1       9.61      13.8      72.1
    ##  6     1        1     9 control           36.6      11.6       53.6      25.2
    ##  7     1        1    10 control           65.6       9.52      23.3      22.8
    ##  8     1        1    11 control           77.7      18.6        6.40     77.7
    ##  9     1        2     4 control           27.0      NA         NA        NA  
    ## 10     1        2     5 control           54.0      42.8       15.7      54.0
    ## # … with 7,475 more rows
…
